^C:\USERS\300070180\SOURCE\REPOS\AMP.EXAMPRACTICALONE\AMP.EXAMPRACTICALONE\DEBUG\MAIN.OBJ
C:\USERS\300070180\SOURCE\REPOS\AMP.EXAMPRACTICALONE\DEBUG\AMP.EXAMPRACTICALONE.EXE
C:\USERS\300070180\SOURCE\REPOS\AMP.EXAMPRACTICALONE\AMP.EXAMPRACTICALONE\DEBUG\AMP.EXAMPRACTICALONE.ILK
C:\USERS\300070180\SOURCE\REPOS\AMP.EXAMPRACTICALONE\DEBUG\AMP.EXAMPRACTICALONE.PDB
